<?xml version="1.0" standalone="no"?>
<svg version="1.0" xmlns="http://www.w3.org/2000/svg" width="1840.000000pt" height="692.000000pt" viewBox="0 0 1840.000000 692.000000" preserveAspectRatio="xMidYMid meet">
	<style type="text/css">
		#s1 {
		opacity: 0;
		-webkit-animation: hiddenToVisible 7s 1s ease-in-out both infinite;
		animation: hiddenToVisible 7s 1s ease-in-out both infinite
		}
		
		
		@-webkit-keyframes hiddenToVisible {
		
		0%,
		100% {
		opacity: 1
		}
		
		50% {
		opacity: 0
		}
		}
		
		@keyframes hiddenToVisible {
		
		0%,
		100% {
		opacity: 1
		}
		
		50% {
		opacity: 0
		}
		}
	</style>
	<g transform="translate(0.000000,692.000000) scale(0.100000,-0.100000)" fill="#000000" stroke="none">
		<path fill="#0676a0" d="M8880 6373 c-44 -7 -123 -34 -179 -60 -50 -23 -160 -89 -171 -102 -3
-4 -18 -12 -34 -19 -22 -10 -51 -11 -125 -3 -194 21 -238 24 -351 24 -130 0
-188 -6 -310 -33 -125 -27 -231 -60 -262 -81 -14 -11 -30 -19 -35 -19 -10 0
-85 -49 -168 -109 -101 -74 -172 -179 -181 -270 -19 -173 132 -252 392 -207
104 19 158 44 232 111 60 55 84 93 97 152 5 25 3 32 -13 37 -25 8 -75 -11 -67
-25 15 -24 -7 -82 -46 -120 -66 -65 -157 -99 -262 -99 -89 0 -137 15 -186 56
-52 45 -69 105 -49 166 28 80 72 131 178 204 57 40 183 104 224 115 17 4 56
15 86 23 65 19 284 21 436 6 55 -5 124 -12 154 -14 87 -6 140 -18 140 -30 0
-6 -12 -24 -26 -41 -14 -16 -33 -39 -42 -50 -10 -11 -31 -38 -47 -60 -16 -22
-33 -42 -36 -45 -3 -3 -18 -23 -33 -45 -14 -22 -38 -58 -53 -80 -14 -22 -29
-42 -33 -45 -6 -5 -95 -129 -173 -242 -17 -26 -53 -71 -79 -100 -26 -29 -48
-56 -48 -60 0 -7 -86 -95 -111 -113 -24 -17 -157 -95 -163 -95 -4 0 -25 -9
-49 -19 -140 -65 -363 -101 -489 -81 -77 12 -137 29 -152 42 -18 15 -41 8 -74
-21 -46 -43 -42 -63 16 -84 26 -9 62 -17 80 -17 18 0 42 -5 52 -10 21 -11 106
-15 160 -6 19 3 69 10 111 15 73 9 143 25 184 41 11 5 38 14 60 21 119 35 316
168 417 281 99 110 109 122 125 153 9 17 19 32 22 35 3 3 22 30 42 61 20 30
65 89 100 130 35 41 69 81 76 89 7 8 36 42 65 75 29 34 98 114 152 178 55 66
108 119 120 121 12 2 59 10 106 16 91 14 164 37 257 82 36 17 92 76 99 102 7
31 -11 66 -35 66 -10 0 -31 2 -47 4 -16 2 -40 2 -54 -1z m65 -53 c9 -14 -13
-50 -30 -50 -8 0 -15 -4 -15 -8 0 -5 -19 -17 -42 -27 -24 -9 -52 -21 -63 -26
-29 -12 -169 -28 -177 -20 -23 21 114 96 222 122 91 21 97 22 105 9z" />
		<path fill="#0676a0" d="M9140 6250 c-19 -10 -40 -22 -47 -25 -26 -14 -150 -146 -183 -195
-19 -29 -42 -59 -51 -69 -22 -23 -83 -112 -97 -141 -7 -14 -21 -38 -32 -55
-73 -114 -121 -224 -142 -323 -21 -104 -19 -160 9 -179 24 -18 34 -16 68 15
37 34 170 132 179 132 4 0 12 5 19 10 49 41 224 136 306 166 58 21 62 10 31
-86 -27 -83 -25 -97 11 -131 25 -24 40 -29 80 -29 26 0 61 5 76 11 15 6 37 15
48 19 40 14 157 75 174 91 40 38 91 51 91 24 0 -82 108 -128 243 -105 97 17
397 175 447 235 8 9 39 34 70 56 30 21 77 59 105 84 47 44 49 47 31 61 -17 12
-22 10 -48 -11 -16 -14 -33 -25 -37 -25 -3 0 -20 -12 -38 -27 -39 -35 -58 -51
-108 -88 -22 -16 -42 -32 -45 -35 -11 -13 -140 -90 -150 -90 -5 0 -10 -4 -10
-8 0 -9 -121 -52 -207 -73 -44 -11 -57 -10 -80 1 -78 39 -85 120 -11 120 58 0
186 43 303 102 51 26 91 74 100 120 6 29 3 39 -16 57 -30 27 -56 27 -148 -5
-150 -50 -189 -74 -321 -200 -36 -34 -85 -74 -109 -89 -25 -15 -49 -32 -55
-37 -6 -5 -40 -26 -76 -47 -73 -43 -134 -65 -170 -59 -23 3 -25 7 -24 53 0 28
6 71 14 97 11 36 11 52 2 72 -10 23 -18 26 -61 26 -44 0 -148 -26 -161 -40 -3
-3 -39 -22 -80 -43 -106 -53 -250 -137 -294 -171 -23 -17 -41 -25 -47 -19 -5
5 -2 40 8 89 l18 79 156 155 c86 85 167 171 180 191 13 20 38 56 55 80 49 69
114 198 114 226 0 25 -24 53 -45 52 -5 0 -26 -9 -45 -19z m0 -101 c0 -42 -241
-347 -324 -409 -18 -14 -19 -13 -13 11 8 30 152 248 196 296 16 18 36 42 44
54 8 11 29 31 47 44 32 23 50 25 50 4z m1006 -350 c26 -42 -171 -159 -269
-159 -70 0 87 125 203 161 37 11 58 10 66 -2z" />
		<path id="s1" fill="#0676a0" d="M3592 5472 c-35 -3 -51 -11 -83 -43 -21 -21 -39 -46 -39 -55 0 -8 27
-40 60 -71 33 -30 60 -61 60 -69 0 -8 4 -14 9 -14 18 0 44 -99 34 -128 -7 -16
-33 4 -33 25 0 8 -11 28 -25 45 -14 16 -25 36 -25 43 0 7 -23 35 -51 63 -39
39 -63 53 -112 67 -34 9 -70 21 -79 26 -24 12 -155 11 -163 -1 -3 -5 -17 -10
-30 -10 -29 0 -102 -32 -131 -58 -51 -44 -66 -109 -39 -166 23 -47 59 -59 139
-45 47 8 75 8 94 1 15 -6 39 -13 55 -16 15 -4 46 -24 70 -46 l42 -40 -1 -100
0 -100 397 0 397 0 20 43 c20 43 20 44 1 102 -10 32 -25 66 -32 74 -15 18 -67
127 -67 140 0 16 -58 33 -101 29 l-42 -3 -11 55 c-19 89 -87 183 -161 223 -46
25 -91 33 -153 29z" />
		<path fill="#6f0b2e" d="M5683 4871 c-8 -7 -13 -25 -11 -40 3 -24 7 -26 53 -29 58 -4 78 -19
100 -76 14 -37 16 -127 13 -801 -3 -849 0 -807 -72 -826 -94 -24 -91 -22 -91
-59 l0 -35 198 -3 197 -2 0 39 0 40 -55 12 c-74 17 -86 27 -96 85 -10 62 -12
1334 -1 1334 9 0 27 -51 53 -155 12 -44 24 -84 28 -90 4 -5 13 -35 20 -65 19
-87 32 -132 47 -168 8 -18 14 -40 14 -49 0 -8 11 -50 25 -92 13 -42 36 -116
50 -166 15 -49 30 -101 35 -115 4 -14 14 -52 21 -85 7 -33 16 -68 21 -78 5
-10 18 -52 29 -93 11 -41 23 -83 28 -92 5 -9 14 -42 21 -72 6 -30 17 -71 25
-90 7 -19 19 -56 25 -82 7 -27 16 -48 20 -48 15 0 33 31 41 70 17 79 49 197
60 225 4 11 10 31 13 45 3 14 12 50 22 80 9 30 20 73 24 95 15 68 27 119 38
150 5 17 15 50 22 75 7 25 18 61 25 80 7 19 18 58 25 85 19 82 31 128 41 160
6 17 17 55 25 85 8 30 20 69 25 85 6 17 19 61 30 98 10 37 21 72 24 77 9 15
35 119 35 140 0 11 5 20 10 20 15 0 14 -1381 -1 -1413 -9 -20 -23 -27 -70 -36
l-59 -12 0 -40 0 -39 230 0 230 0 0 35 c0 39 -13 49 -77 60 -84 14 -78 -55
-78 847 l0 800 33 29 c25 23 42 29 77 29 l45 0 0 46 0 47 -47 -8 c-75 -12
-212 -15 -218 -4 -11 17 -44 9 -56 -13 -7 -13 -16 -41 -20 -63 -11 -59 -26
-116 -37 -150 -6 -16 -16 -50 -22 -75 -7 -25 -18 -60 -26 -78 -8 -18 -14 -44
-14 -57 0 -13 -4 -27 -10 -30 -5 -3 -10 -17 -10 -29 0 -13 -7 -37 -15 -52 -8
-16 -15 -37 -15 -46 0 -9 -4 -27 -9 -40 -5 -13 -14 -48 -21 -78 -6 -30 -17
-71 -25 -90 -7 -19 -18 -55 -25 -80 -6 -25 -16 -58 -21 -75 -15 -42 -29 -93
-39 -141 -5 -22 -17 -67 -28 -100 -11 -32 -25 -79 -32 -104 -6 -25 -18 -60
-26 -78 -8 -18 -14 -41 -14 -52 0 -25 -15 -33 -30 -16 -10 13 -37 106 -59 206
-5 19 -13 46 -19 60 -5 14 -15 45 -22 70 -7 25 -18 61 -25 80 -7 19 -19 58
-25 85 -6 28 -18 66 -25 85 -14 37 -27 85 -45 165 -7 28 -18 66 -25 85 -7 19
-18 55 -25 80 -7 25 -17 56 -22 70 -6 14 -14 41 -19 60 -10 45 -24 97 -38 135
-11 33 -23 77 -45 174 -9 36 -22 71 -29 79 -20 19 -285 23 -304 3z" />
		<path fill="#0676a0" d="M1310 4700 l-35 -5 0 -1622 c0 -892 3 -1625 8 -1629 4 -4 13 0 20 10
12 16 14 16 36 -4 29 -25 59 -22 91 8 29 27 37 28 45 2 4 -12 19 -22 41 -26
29 -5 38 -2 59 20 30 32 33 32 45 1 13 -34 53 -33 86 2 l26 28 22 -28 c26 -33
61 -35 92 -6 l23 21 27 -21 c35 -28 64 -26 93 5 l24 25 27 -26 c34 -32 77 -34
82 -2 2 16 11 23 31 25 24 3 27 0 27 -27 0 -30 13 -41 25 -21 3 5 12 7 19 4 8
-3 23 6 34 20 27 36 40 33 47 -11 15 -93 16 -94 38 -91 19 3 22 -3 25 -36 3
-37 2 -38 -21 -32 l-25 6 -1 -99 c-1 -55 3 -102 8 -105 5 -4 20 -2 34 3 25 10
25 11 26 145 l1 136 -25 6 c-18 4 -25 13 -25 30 0 26 18 32 38 12 9 -9 12 -8
12 5 0 9 -11 19 -25 23 l-24 6 -3 152 c-2 83 -1 329 2 546 l5 395 233 3 232 2
-2 -582 -3 -582 -42 -11 c-49 -12 -58 -19 -49 -41 6 -15 8 -15 32 1 19 12 29
14 39 5 18 -15 35 -5 35 21 0 10 5 19 10 19 6 0 10 100 10 280 l0 280 48 0
c46 1 633 0 1195 0 l277 0 0 -25 c0 -32 -22 -41 -59 -25 -60 24 -245 -35 -312
-101 -16 -16 -36 -29 -44 -29 -8 0 -30 17 -49 38 -30 33 -47 41 -123 60 -103
26 -120 27 -139 8 -7 -8 -32 -17 -54 -21 -29 -5 -48 -17 -72 -46 -31 -38 -60
-49 -73 -29 -3 6 -17 10 -29 10 -13 0 -34 8 -47 19 -70 54 -182 80 -277 63
-65 -11 -116 -42 -125 -75 -3 -10 -19 -23 -37 -30 -29 -11 -31 -14 -25 -48 4
-22 2 -40 -4 -44 -17 -10 -13 -94 7 -127 13 -23 14 -32 5 -35 -26 -9 -12 -20
25 -20 25 0 53 -10 79 -27 43 -28 66 -27 84 5 12 22 35 25 42 5 3 -8 18 -20
33 -28 38 -18 40 -33 9 -62 -25 -24 -26 -25 -23 -152 l3 -129 25 0 25 0 7 155
c3 85 8 166 11 180 2 14 5 31 6 38 2 20 39 14 46 -8 9 -29 80 -29 88 1 l5 20
41 -20 c53 -28 91 -28 91 -1 0 26 26 26 40 0 15 -28 75 -28 90 0 14 26 47 26
55 0 9 -29 58 -26 87 5 l24 25 32 -24 c34 -25 62 -25 83 0 16 20 27 18 61 -11
37 -31 51 -31 72 0 20 30 30 31 63 5 33 -26 69 -26 76 0 7 26 48 26 65 0 17
-27 68 -27 77 0 8 26 31 26 45 0 14 -26 52 -26 75 0 24 27 59 22 63 -8 3 -17
8 -21 25 -17 55 13 64 -44 9 -60 l-32 -9 0 -133 0 -133 26 -6 c14 -4 29 -3 34
2 5 5 12 61 14 124 12 258 19 286 61 240 24 -26 63 -25 91 1 l23 21 27 -21
c34 -26 54 -27 88 0 28 22 56 20 56 -6 0 -9 9 -15 26 -15 36 0 63 17 74 46 11
27 15 3203 4 3213 -7 7 -3673 8 -3724 1z m2003 -72 c13 -18 27 -41 30 -50 14
-39 118 -90 209 -102 10 -1 35 -21 56 -44 35 -38 44 -42 85 -42 96 0 137 -34
137 -115 0 -49 2 -55 24 -61 26 -6 109 0 124 10 6 3 16 23 23 44 6 20 33 66
59 102 60 83 64 107 33 197 -13 40 -22 77 -18 83 4 7 158 10 461 10 l454 0 2
-562 c1 -310 1 -576 -1 -593 -2 -40 -16 -53 -41 -37 -11 6 -28 12 -39 12 -10
0 -54 9 -97 21 -135 35 -156 39 -251 49 -61 7 -128 7 -200 0 -228 -23 -225
-23 -234 -8 -5 7 -8 64 -7 126 0 62 -2 115 -5 119 -4 3 -14 0 -22 -7 -11 -9
-45 -12 -105 -11 -84 1 -90 0 -90 -19 0 -19 6 -20 89 -18 49 2 93 0 97 -4 11
-12 12 -98 0 -107 -19 -16 -79 -22 -126 -13 -45 8 -47 11 -39 57 4 18 -2 20
-46 21 -43 0 -50 3 -53 21 -2 14 4 23 17 28 40 12 24 35 -24 35 -45 0 -47 1
-173 129 -70 71 -176 182 -237 247 -127 136 -158 168 -202 208 l-33 29 -115
-119 c-64 -65 -122 -126 -129 -134 -7 -8 -33 -33 -57 -56 -24 -23 -100 -100
-169 -173 -69 -73 -208 -217 -310 -321 -102 -104 -205 -210 -229 -237 -24 -26
-50 -51 -56 -55 -7 -4 -30 5 -54 22 -22 17 -46 30 -51 30 -6 0 -28 11 -48 25
-20 14 -41 25 -45 25 -5 0 -21 8 -35 19 -48 34 -234 101 -280 101 -16 0 -32 4
-38 9 -5 5 -54 16 -109 25 -55 10 -105 22 -112 28 -10 8 -13 122 -13 543 0
292 3 535 7 538 3 4 446 7 984 7 l978 0 24 -32z m-76 -481 c107 -107 276 -283
295 -307 11 -14 117 -125 236 -248 274 -282 413 -428 477 -498 94 -105 196
-204 208 -204 7 0 29 16 47 35 l35 36 -24 42 c-13 23 -37 53 -53 66 -15 13
-28 31 -28 40 0 9 47 64 104 121 202 204 245 237 295 225 87 -20 131 -37 131
-49 0 -8 -37 -53 -82 -99 -168 -173 -278 -298 -278 -317 0 -3 -18 -31 -41 -61
-38 -50 -89 -148 -102 -194 -13 -46 -33 -91 -42 -95 -6 -3 -11 33 -13 95 -3
102 -14 145 -49 177 -17 17 -171 173 -438 444 -71 73 -202 208 -290 300 -88
92 -180 185 -204 208 -72 67 -119 117 -137 148 -5 8 -35 36 -68 63 l-58 47
-36 -34 c-38 -35 -39 -36 -190 -197 -53 -58 -137 -146 -187 -197 -49 -50 -153
-158 -230 -239 -77 -82 -174 -183 -215 -225 -41 -42 -119 -123 -173 -180 -54
-58 -123 -130 -152 -160 -34 -35 -62 -75 -75 -109 -11 -30 -30 -65 -40 -79
-11 -14 -20 -29 -20 -34 0 -5 -5 -14 -10 -21 -18 -21 -90 -145 -90 -156 0 -5
-17 -20 -37 -32 -35 -21 -149 -103 -183 -132 -8 -6 -25 -17 -38 -24 -32 -17
-40 7 -14 44 10 15 25 46 32 68 7 22 17 45 24 50 6 6 23 35 39 65 54 109 249
325 320 355 18 8 97 83 177 167 80 84 188 196 240 248 52 53 158 163 235 244
171 180 475 492 512 526 16 14 50 49 77 78 27 28 52 52 55 52 3 0 30 -24 58
-53z m-9 -116 c36 -32 53 -55 50 -68 -3 -16 -14 -18 -118 -18 -90 0 -115 3
-115 13 0 16 105 122 120 122 6 0 34 -22 63 -49z m133 -144 c20 -15 50 -45 68
-67 29 -36 30 -41 14 -46 -10 -3 -26 -10 -36 -15 -13 -7 -29 -4 -58 13 l-41
23 -20 -25 c-21 -25 -67 -60 -80 -60 -18 0 -5 21 38 64 25 25 44 51 42 58 -5
14 -90 37 -139 38 -37 0 -143 -45 -137 -59 4 -11 114 -111 121 -111 4 0 7 35
9 77 2 49 7 78 15 80 9 3 13 -22 15 -94 l3 -98 90 0 90 0 3 30 c5 39 16 45 82
45 l56 0 87 -87 c48 -47 87 -88 87 -90 0 -1 -225 -3 -500 -3 -406 0 -500 2
-500 13 0 7 36 48 80 91 l80 77 62 -3 63 -3 1 -35 0 -35 69 0 c85 0 98 19 37
53 -22 12 -45 29 -53 38 -11 13 -25 15 -76 9 -59 -6 -63 -5 -63 13 0 27 114
130 149 134 14 2 89 3 167 2 136 0 142 -1 175 -27z m707 -316 c18 -7 31 -18
29 -25 -6 -15 -77 -12 -88 5 -8 13 8 43 20 36 3 -2 21 -9 39 -16z m-255 -149
c53 -53 97 -103 97 -110 0 -10 -22 -12 -92 -10 l-93 3 -3 88 c-3 100 18 88
-157 92 -152 3 -144 8 -147 -93 l-3 -87 -45 0 -45 0 -3 87 c-2 72 -6 88 -20
92 -22 6 -242 6 -264 0 -14 -4 -18 -20 -20 -92 l-3 -87 -57 -3 -57 -3 -3 93
-3 93 -135 2 c-74 1 -141 2 -149 3 -11 0 -11 3 -1 15 10 12 78 14 453 15 242
0 442 1 443 3 1 1 49 1 106 -1 l103 -3 98 -97z m-2364 87 c28 -6 53 -15 57
-20 3 -5 -21 -35 -53 -67 -32 -32 -70 -73 -85 -91 -15 -18 -32 -30 -38 -26
-11 7 -14 197 -3 208 10 10 66 8 122 -4z m2996 -6 c0 -7 -22 -37 -50 -66 -27
-29 -71 -76 -97 -104 l-48 -52 -42 39 c-24 22 -47 40 -51 40 -4 0 -15 16 -23
36 -14 32 -13 38 1 60 20 31 20 31 130 48 108 17 180 16 180 -1z m224 -5 c28
-6 51 -16 51 -23 0 -10 -184 -202 -288 -300 l-42 -40 -31 30 c-17 17 -41 41
-55 54 -13 13 -24 29 -24 35 0 6 54 66 120 134 l119 122 50 0 c27 0 72 -5 100
-12z m-2993 -46 c60 -22 66 -42 23 -79 -60 -52 -145 -137 -210 -212 -35 -41
-71 -82 -79 -91 -8 -9 -26 -30 -39 -48 -44 -58 -51 -45 -51 91 l0 124 38 36
c20 20 60 61 87 92 103 116 125 125 231 87z m917 -143 c-7 -6 -136 -14 -166
-10 -4 1 -4 8 0 16 13 23 141 153 155 157 10 4 14 -16 16 -75 2 -44 -1 -84 -5
-88z m135 143 c9 -6 12 -33 10 -98 -3 -85 -4 -89 -27 -92 -12 -2 -34 -1 -47 2
-23 6 -24 10 -24 95 0 62 4 91 13 94 19 8 61 7 75 -1z m136 0 c2 -4 6 -46 7
-92 l2 -85 -56 -3 -57 -3 0 89 c0 49 3 92 7 95 9 10 91 9 97 -1z m285 -6 c8
-9 11 -45 9 -98 l-3 -83 -50 0 -50 0 -3 81 c-2 65 1 85 13 98 20 20 68 21 84
2z m136 -81 l0 -90 -52 -3 -53 -3 0 89 c0 49 3 92 7 96 4 4 28 6 53 4 l45 -3
0 -90z m270 -5 l0 -95 -47 -3 -48 -3 0 94 c0 51 3 97 7 101 4 4 25 6 48 4 l40
-3 0 -95z m120 -1 l0 -94 -45 0 -45 0 -3 84 c-2 46 -1 90 2 98 4 8 20 12 48
10 l43 -3 0 -95z m-1798 10 c35 -17 63 -34 63 -38 0 -8 -9 -18 -80 -86 -17
-16 -45 -47 -63 -68 -18 -22 -87 -94 -155 -160 -67 -67 -139 -147 -160 -177
-20 -30 -43 -61 -50 -68 -7 -8 -31 -41 -53 -73 -22 -33 -44 -57 -50 -54 -5 4
-9 58 -9 122 0 126 8 155 60 212 17 18 30 39 30 48 0 23 360 373 384 373 10 0
48 -14 83 -31z m3113 -80 c0 -32 -4 -67 -9 -77 -5 -9 -12 -24 -15 -32 -9 -22
-90 -145 -106 -160 -3 -3 -14 -22 -25 -42 -11 -21 -23 -38 -26 -38 -4 0 -24
-35 -44 -77 -21 -43 -41 -85 -45 -93 -4 -9 -11 -31 -14 -50 -9 -42 -44 -116
-63 -131 -10 -9 -32 -7 -86 6 -39 9 -78 22 -85 28 -17 13 -8 54 30 135 16 35
33 73 38 85 16 37 77 119 141 189 34 37 73 85 89 105 15 21 59 72 98 113 39
41 78 83 87 93 24 28 35 11 35 -54z m-2958 -6 c23 -21 23 -38 -3 -75 -25 -34
-100 -108 -110 -108 -4 0 -33 -29 -65 -65 -54 -62 -56 -67 -44 -91 12 -22 11
-27 -17 -57 -16 -17 -44 -53 -61 -78 -17 -26 -38 -49 -46 -52 -8 -3 -28 -25
-43 -49 -15 -24 -30 -45 -34 -48 -6 -6 -66 -97 -115 -176 -17 -29 -39 -76 -49
-105 -9 -30 -24 -69 -31 -87 -8 -18 -14 -38 -14 -45 0 -22 -55 -81 -68 -73 -9
5 -12 59 -12 181 0 167 1 177 26 230 15 30 29 55 33 55 4 0 15 18 25 40 10 22
22 40 27 40 5 0 9 6 9 13 0 8 9 22 21 33 11 10 45 50 74 89 29 38 137 154 240
258 197 196 215 208 257 170z m1979 -59 c36 -37 41 -46 29 -54 -8 -6 -81 -9
-165 -7 l-150 2 -3 52 -3 52 108 3 c59 2 115 1 124 0 9 -2 36 -24 60 -48z
m-1413 -6 l-3 -53 -152 -3 c-176 -3 -181 0 -110 67 l42 40 113 1 113 0 -3 -52z
m422 -3 c0 -54 0 -54 -34 -60 -18 -4 -44 -5 -57 -3 -22 3 -24 9 -27 61 l-3 57
61 0 60 0 0 -55z m402 28 c2 -47 -3 -77 -15 -85 -19 -12 -64 -9 -74 5 -13 16
-26 85 -18 97 3 6 28 10 56 10 46 0 49 -1 51 -27z m-684 -116 c3 -109 0 -114
-62 -103 l-35 7 -3 90 c-2 49 -1 94 1 100 1 5 24 9 50 7 l46 -3 3 -98z m134
51 c2 -64 -2 -141 -8 -147 -7 -7 -67 -11 -86 -5 -16 5 -18 18 -18 98 0 51 3
96 7 99 3 4 28 7 55 7 l48 0 2 -52z m286 -47 c3 -102 -1 -111 -50 -111 -54 0
-58 6 -58 95 0 112 2 117 59 113 l46 -3 3 -94z m126 83 c11 -29 7 -169 -6
-182 -15 -15 -63 -16 -89 -2 -17 9 -19 22 -19 99 0 48 3 91 7 94 3 4 28 7 54
7 33 0 49 -4 53 -16z m274 -86 l3 -97 -36 -7 c-62 -11 -65 -6 -65 106 l0 101
48 -3 47 -3 3 -97z m122 2 c0 -112 -3 -117 -65 -106 l-35 7 0 93 c0 51 3 96 7
99 3 4 26 7 50 7 l43 0 0 -100z m490 -74 c41 -41 75 -80 75 -88 0 -11 -184
-13 -1072 -16 -869 -2 -1073 0 -1073 11 0 7 22 36 50 65 27 29 50 57 50 62 0
21 81 31 235 28 l160 -3 3 -55 c2 -30 8 -60 14 -68 9 -10 43 -12 147 -10 l136
3 3 68 3 68 57 -3 57 -3 5 -60 5 -60 142 -3 c161 -3 149 -9 155 83 l3 40 45 0
45 0 3 -62 3 -63 37 0 c20 0 80 -1 132 -1 52 -1 103 -1 112 0 14 1 18 13 20
64 l3 62 170 5 c94 3 177 7 185 8 8 1 49 -31 90 -72z m820 -95 l0 -170 -54
-113 c-29 -62 -56 -125 -60 -140 -6 -26 -10 -28 -54 -28 -39 0 -54 5 -81 31
-32 29 -33 33 -28 81 4 28 11 56 17 62 5 5 10 25 10 42 0 18 4 35 9 39 5 3 12
19 16 35 4 17 22 53 41 81 19 28 34 53 34 55 0 2 17 29 38 60 20 31 42 65 48
75 16 27 46 59 56 59 4 0 8 -76 8 -169z m-670 -67 c36 -33 40 -41 40 -85 l0
-49 -752 -2 c-414 -2 -780 -2 -814 0 -54 3 -65 7 -92 35 -17 18 -49 51 -72 75
-29 31 -47 42 -58 37 -15 -6 -14 -9 5 -22 26 -18 227 -220 231 -233 2 -6 -85
-10 -227 -10 -165 0 -231 3 -231 11 0 7 48 58 107 115 58 57 103 107 99 111
-3 4 -35 -22 -70 -56 l-64 -64 -224 2 c-192 1 -225 4 -235 18 -15 20 -3 45 52
108 l40 45 1112 0 1113 0 40 -36z m-1952 -172 c1 -5 -12 -23 -29 -42 -23 -23
-33 -45 -37 -76 l-5 -44 -162 0 c-128 0 -165 3 -174 14 -7 8 -11 38 -9 72 3
60 6 64 62 80 38 11 350 8 354 -4z m1972 3 c17 -6 20 -15 20 -75 0 -55 -3 -69
-17 -75 -21 -8 -311 -7 -324 1 -5 3 -9 27 -9 54 0 48 -1 49 -32 54 -29 4 -203
3 -250 -2 -13 -2 -18 -14 -20 -59 l-3 -58 -119 -3 c-135 -3 -138 -2 -134 68
l2 45 -147 3 -147 3 0 -55 c0 -40 -4 -55 -16 -60 -20 -8 -268 -8 -288 0 -19 7
-21 35 -3 53 10 10 9 15 -3 24 -21 16 -71 83 -66 88 7 7 1534 1 1556 -6z m650
-155 c0 -102 -2 -122 -16 -127 -9 -3 -24 -1 -33 6 -9 6 -24 14 -33 17 -25 9
-22 40 7 98 14 27 25 56 25 63 0 18 30 63 41 63 5 0 9 -54 9 -120z m-3080 52
c-1 -49 -17 -82 -42 -82 -8 0 -23 -7 -34 -15 -24 -18 -44 -19 -44 -2 0 16 77
139 93 149 19 12 27 -2 27 -50z m1506 14 c3 -12 4 -55 2 -96 l-3 -75 -45 0
-45 0 -3 84 c-2 46 -1 90 2 97 3 8 21 13 46 12 33 0 41 -4 46 -22z m409 14
c25 -10 26 -11 23 -97 l-3 -88 -45 0 -45 0 -3 84 c-2 46 -1 90 2 98 6 15 35
17 71 3z m145 -85 l0 -95 -50 0 -50 0 0 88 c0 49 3 92 7 95 3 4 26 7 50 7 l43
0 0 -95z m-676 69 c11 -29 6 -150 -7 -168 -9 -13 -23 -17 -52 -14 l-40 3 -3
98 -3 97 50 0 c35 0 51 -4 55 -16z m-484 -28 c0 -8 -6 -15 -12 -17 -7 -2 -113
-3 -235 -1 -188 2 -223 5 -223 17 0 13 35 15 235 15 194 0 235 -2 235 -14z
m1620 -44 c0 -5 12 -14 26 -21 57 -25 179 -189 234 -311 4 -8 15 -31 25 -50
10 -19 26 -53 37 -75 10 -22 26 -53 35 -70 64 -115 64 -125 3 -125 -22 0 -55
-7 -74 -17 -43 -20 -56 -12 -81 55 -10 26 -29 69 -41 96 -13 28 -24 54 -24 58
0 5 -9 19 -21 31 -11 12 -30 42 -41 67 -11 25 -24 47 -28 50 -12 8 -50 79 -50
94 0 7 -7 19 -15 26 -11 9 -15 33 -15 90 0 43 3 85 6 94 6 17 24 22 24 8z
m125 -2 c3 -5 21 -10 39 -10 57 0 147 -50 186 -102 13 -18 28 -37 33 -43 21
-25 117 -178 117 -187 0 -6 13 -38 29 -72 29 -61 34 -89 32 -199 l-1 -57 -47
3 c-46 3 -49 5 -74 52 -15 28 -28 57 -28 65 -1 9 -16 45 -34 80 -19 36 -42 90
-53 120 -10 30 -29 65 -41 77 -13 12 -23 25 -23 29 0 15 -89 131 -137 177 -29
27 -53 56 -53 63 0 16 46 19 55 4z m-2260 -114 l0 -90 -125 1 c-184 1 -187 2
-204 18 -18 18 -21 131 -3 142 22 13 83 19 207 18 l125 0 0 -89z m856 78 c12
-7 12 -151 -1 -159 -13 -8 -285 -9 -299 -1 -14 9 -15 148 -2 162 10 9 286 9
302 -2z m450 6 l109 0 0 -84 0 -85 -122 -3 c-68 -2 -125 -2 -127 0 -9 5 -13
112 -7 147 5 27 11 35 22 31 9 -3 65 -6 125 -6z m750 -7 c5 -5 9 -43 7 -84
l-3 -74 -150 -3 c-205 -4 -195 -8 -195 83 0 60 3 76 17 84 23 12 311 7 324 -6z
m-2446 -68 c0 -34 -3 -39 -19 -37 -10 2 -23 8 -30 13 -6 5 -20 16 -30 23 -19
13 -18 14 10 29 16 8 38 15 49 14 16 -2 20 -9 20 -42z m3009 -27 c28 -18 56
-39 63 -48 15 -18 18 -170 3 -170 -5 0 -16 10 -25 23 -38 54 -65 99 -65 108 0
5 -13 28 -30 51 -54 74 -31 90 54 36z m-3069 -29 l65 -51 0 -74 c0 -78 -11
-94 -40 -54 -8 11 -51 45 -96 75 -45 31 -89 64 -98 74 -16 18 -15 21 26 50 24
16 51 30 61 31 9 0 47 -23 82 -51z m2120 -70 c0 -102 -1 -104 -24 -107 -12 -2
-34 -1 -47 2 -23 6 -24 9 -24 105 0 54 3 100 6 104 3 3 25 4 47 3 l42 -3 0
-104z m-697 95 c21 -6 22 -11 22 -104 l0 -98 -39 -4 c-22 -2 -45 -2 -50 0 -16
5 -15 199 2 205 17 8 39 8 65 1z m133 -4 c16 -9 19 -22 19 -90 0 -105 -3 -110
-56 -110 l-44 0 0 99 c0 70 4 101 13 104 21 9 47 7 68 -3z m447 -92 l3 -96
-30 -7 c-17 -4 -40 -4 -51 0 -18 6 -20 15 -20 106 l0 100 48 -3 47 -3 3 -97z
m-2142 -23 c42 -30 107 -82 145 -117 l69 -63 0 -82 c0 -92 -8 -101 -58 -62
-15 11 -69 53 -121 94 -52 41 -108 81 -126 89 -17 8 -39 24 -50 36 -10 11 -26
20 -35 20 -20 0 -44 24 -38 40 5 15 111 99 125 100 7 0 47 -25 89 -55z m592
-57 c3 -69 1 -78 -18 -88 -13 -7 -26 -7 -38 -1 -10 5 -24 6 -31 2 -15 -9 -167
-7 -196 3 -47 17 -50 22 -53 86 -2 44 1 66 10 72 7 4 83 7 168 5 l155 -2 3
-77z m846 76 c12 -5 16 -21 16 -75 0 -68 0 -69 28 -70 39 -2 158 -2 215 -1
l47 2 0 63 c0 34 4 68 8 75 7 9 39 12 128 10 l119 -3 3 -60 c2 -34 8 -64 16
-70 8 -6 65 -8 147 -5 l134 5 5 65 5 65 170 0 170 0 3 -73 c3 -71 2 -72 -25
-83 -36 -15 -267 -21 -300 -8 -15 5 -30 6 -37 1 -8 -7 -1102 -9 -1148 -3 -14
2 -9 159 5 164 18 8 272 8 291 1z m1442 -347 c3 -12 16 -42 27 -66 l21 -44
-35 -29 c-53 -45 -57 -48 -84 -58 -34 -13 -57 0 -90 48 -25 36 -25 38 -25 253
0 165 3 218 13 222 11 4 154 -265 173 -326z m-3038 196 c34 -21 71 -47 84 -58
13 -11 35 -28 49 -37 14 -9 39 -29 55 -45 16 -15 45 -39 63 -53 19 -14 48 -37
65 -52 17 -16 34 -28 38 -28 5 0 13 -12 19 -27 14 -37 -1 -46 -99 -59 -28 -4
-48 -2 -59 7 -9 8 -42 19 -75 26 -48 10 -67 20 -109 60 -28 26 -68 59 -90 73
-92 59 -111 70 -123 70 -8 0 -19 7 -26 15 -17 20 -5 46 46 103 49 54 79 55
162 5z m750 -115 l3 -78 -159 0 c-109 0 -162 4 -170 12 -7 7 -12 38 -12 70 0
76 5 78 190 75 l145 -2 3 -77z m2040 76 c20 -6 22 -12 22 -74 0 -45 -5 -71
-14 -79 -9 -8 -218 -11 -754 -11 -655 1 -741 3 -746 16 -8 21 -8 139 1 147 8
9 1460 9 1491 1z m-2938 -131 c14 -9 27 -20 30 -23 3 -4 25 -20 49 -36 24 -16
55 -37 69 -46 24 -16 42 -36 42 -49 0 -4 -26 -6 -57 -6 -36 1 -71 -5 -92 -16
-44 -22 -63 -21 -95 4 -24 19 -26 26 -26 98 0 43 3 81 7 84 12 12 48 7 73 -10z
m900 -149 l0 -86 -32 7 c-18 4 -56 20 -84 36 -54 30 -96 35 -177 23 l-48 -7 7
44 c3 24 7 50 10 57 2 9 44 12 164 12 l160 0 0 -86z m72 -600 c3 -3 4 -14 1
-25 -8 -28 -33 -24 -33 6 0 23 18 34 32 19z" />
		<path fill="#0676a0" d="M3771 4122 c-7 -2 -11 -53 -11 -158 0 -150 1 -154 21 -154 19 0 20 4
15 35 -6 29 -4 36 11 41 10 3 29 10 42 15 23 10 23 10 5 23 -10 8 -28 15 -39
17 -17 4 -20 12 -20 59 l0 55 163 0 162 0 0 27 c0 15 -6 30 -12 35 -13 8 -315
12 -337 5z" />
		<path fill="#0676a0" d="M3848 4013 c-41 -6 -34 -29 10 -36 45 -8 82 1 82 18 0 12 -34 26 -55
23 -5 0 -22 -3 -37 -5z" />
		<path fill="#0676a0" d="M3974 4005 c-11 -28 7 -35 77 -33 56 2 69 6 66 18 -1 9 -11 14 -24
12 -12 -2 -24 2 -28 8 -10 16 -85 13 -91 -5z" />
		<path fill="#0676a0" d="M4078 3943 c-16 -2 -29 -9 -29 -14 -5 -28 -2 -34 21 -39 19 -5 25
-13 25 -33 -1 -41 22 -32 27 10 5 41 -1 84 -11 82 -3 -1 -18 -4 -33 -6z" />
		<path fill="#0676a0" d="M3902 3919 c3 -22 8 -24 55 -24 89 1 83 34 -7 43 -50 5 -52 4 -48
-19z" />
		<path fill="#0676a0" d="M3830 3842 c0 -30 77 -45 99 -18 9 11 7 15 -11 20 -33 8 -88 7 -88
-2z" />
		<path fill="#0676a0" d="M3972 3833 c4 -21 74 -31 92 -13 16 16 -10 30 -57 30 -31 0 -38 -3
-35 -17z" />
		<path fill="#0676a0" d="M3970 3680 c0 -29 33 -43 67 -28 38 16 37 16 23 33 -7 9 -29 15 -51
15 -32 0 -39 -3 -39 -20z" />
		<path fill="#6f0b2e" d="M11260 4699 c-74 -7 -118 -17 -156 -37 -10 -5 -36 -18 -57 -28 -57
-28 -182 -148 -222 -212 -89 -147 -124 -240 -150 -400 -26 -157 -14 -425 24
-532 5 -14 15 -45 22 -70 25 -86 117 -238 175 -291 40 -36 130 -99 141 -99 5
0 14 -5 21 -12 18 -18 81 -37 169 -50 66 -9 101 -9 175 1 97 13 182 33 214 48
11 5 46 23 78 39 l60 30 -3 199 c-3 213 2 240 45 286 18 18 25 35 22 54 l-3
28 -200 1 -200 1 0 -35 0 -35 65 -5 c70 -6 104 -20 120 -50 6 -11 10 -92 10
-192 0 -203 -1 -204 -97 -237 -74 -26 -228 -31 -290 -10 -117 41 -244 168
-284 286 -7 21 -19 47 -26 58 -7 11 -13 28 -13 37 0 10 -4 26 -9 36 -49 96
-64 475 -25 627 38 148 58 195 123 289 45 64 59 78 112 107 24 13 51 28 59 34
22 17 114 35 173 35 74 -1 131 -15 219 -57 108 -53 128 -85 128 -210 0 -86 2
-93 20 -93 30 0 39 28 45 156 4 65 11 134 17 153 9 31 8 35 -18 57 -16 13 -33
23 -37 24 -5 0 -32 11 -60 24 -94 42 -239 60 -387 45z" />
		<path fill="#6f0b2e" d="M13750 4699 c-95 -9 -127 -19 -210 -69 -130 -76 -266 -241 -310 -373
-11 -34 -25 -75 -31 -92 -51 -148 -51 -557 -1 -686 6 -13 15 -44 22 -69 19
-70 39 -110 88 -180 61 -87 77 -103 147 -154 133 -95 269 -128 437 -107 51 6
111 16 133 22 63 18 167 61 197 83 l27 19 0 219 0 219 35 40 c36 40 46 74 24
80 -7 2 -98 4 -203 4 l-190 0 0 -35 0 -35 60 -5 c66 -6 99 -20 115 -50 6 -11
10 -94 10 -195 0 -173 0 -176 -24 -200 -13 -13 -37 -27 -53 -30 -15 -4 -39
-11 -52 -16 -38 -16 -204 -12 -256 6 -85 28 -114 51 -225 175 -35 39 -79 130
-98 205 -6 22 -18 64 -26 94 -21 70 -31 345 -18 466 10 90 27 165 43 197 5 10
9 26 9 35 1 17 8 33 57 119 51 91 156 171 263 201 98 27 222 9 326 -46 113
-62 122 -76 131 -206 5 -80 9 -95 23 -95 14 0 19 22 34 143 9 78 19 156 22
173 4 29 0 35 -42 63 -26 17 -53 31 -60 31 -7 0 -28 6 -46 14 -84 36 -215 49
-358 35z" />
		<path fill="#6f0b2e" d="M7705 4686 c-76 -22 -146 -67 -220 -142 -41 -42 -75 -80 -75 -85 0
-5 -15 -32 -33 -61 -18 -29 -39 -73 -47 -98 -7 -25 -18 -51 -23 -58 -5 -7 -13
-29 -17 -50 -4 -20 -17 -83 -29 -140 -23 -113 -29 -324 -11 -397 6 -22 15 -65
21 -95 23 -119 27 -136 39 -170 7 -19 16 -44 20 -55 7 -20 32 -68 71 -140 29
-52 112 -132 182 -173 113 -68 293 -81 417 -30 46 19 125 61 145 79 84 72 115
103 115 114 0 8 4 15 8 17 16 6 90 135 111 193 53 143 68 226 76 410 8 168
-11 372 -43 471 -34 107 -152 279 -224 325 -82 55 -110 68 -175 85 -64 17
-250 17 -308 0z m236 -99 c20 -7 43 -17 50 -23 8 -6 30 -18 50 -27 20 -9 50
-33 65 -53 28 -35 104 -169 117 -209 4 -11 12 -33 18 -50 42 -122 60 -530 29
-685 -37 -185 -41 -196 -102 -295 -40 -66 -114 -130 -174 -152 -22 -7 -77 -14
-124 -14 -136 -1 -197 35 -299 176 -70 97 -105 194 -131 370 -5 33 -14 76 -20
95 -26 87 -8 391 31 516 5 17 9 37 9 46 0 29 48 121 97 186 29 39 113 102 158
118 42 16 182 16 226 1z" />
		<path fill="#6f0b2e" d="M12496 4668 c-9 -12 -16 -30 -16 -40 0 -9 -6 -32 -14 -50 -8 -18 -19
-51 -24 -73 -18 -70 -34 -129 -47 -170 -7 -22 -18 -60 -25 -85 -7 -25 -18 -61
-25 -80 -7 -19 -18 -55 -25 -80 -7 -25 -16 -53 -21 -62 -8 -16 -14 -36 -39
-138 -14 -56 -27 -101 -49 -164 -12 -33 -21 -67 -21 -76 0 -9 -4 -20 -9 -25
-5 -6 -21 -55 -35 -110 -15 -55 -33 -116 -40 -135 -8 -19 -19 -55 -26 -80 -7
-25 -18 -57 -26 -72 -8 -14 -14 -35 -14 -46 0 -12 -4 -24 -10 -27 -5 -3 -10
-14 -10 -23 0 -22 -35 -44 -80 -52 -32 -5 -35 -8 -35 -40 l0 -35 185 0 185 0
0 35 c0 34 -1 35 -47 40 -55 7 -88 33 -88 69 1 33 22 109 38 138 6 12 12 30
12 39 0 20 16 74 36 122 8 18 14 43 14 55 0 12 7 30 14 40 12 16 33 17 236 15
l223 -3 14 -40 c18 -49 32 -98 43 -150 4 -22 16 -65 25 -95 10 -30 19 -80 22
-111 5 -65 1 -68 -82 -78 -49 -6 -50 -6 -50 -41 l0 -35 220 0 220 0 0 35 c0
31 -3 35 -30 38 -48 6 -79 35 -93 88 -8 27 -22 70 -32 95 -18 43 -30 86 -49
169 -5 19 -13 46 -19 60 -5 14 -15 45 -22 70 -7 25 -18 63 -25 85 -7 22 -18
60 -25 85 -7 25 -18 63 -25 85 -17 54 -31 107 -49 183 -8 35 -19 69 -24 75 -5
7 -12 26 -15 42 -11 60 -28 120 -38 129 -5 6 -9 19 -9 30 0 20 -14 69 -32 116
-6 14 -23 76 -39 138 -38 156 -66 193 -103 140z m4 -358 c0 -11 6 -37 14 -57
7 -21 19 -58 25 -83 7 -25 17 -58 22 -75 6 -16 17 -57 25 -90 31 -127 63 -243
75 -273 5 -13 9 -34 9 -47 l0 -25 -195 0 -195 0 0 23 c0 13 5 28 10 33 6 6 19
44 29 85 10 41 23 85 29 99 16 41 32 96 32 109 0 7 6 27 13 44 21 49 37 102
37 122 0 40 46 155 62 155 4 0 8 -9 8 -20z" />
		<path fill="#6f0b2e" d="M8925 4668 c-55 -4 -164 -6 -242 -2 l-142 6 -7 -26 c-9 -37 9 -53 68
-58 61 -6 83 -29 92 -96 3 -25 6 -332 6 -683 0 -575 -2 -642 -17 -673 -17 -37
-53 -56 -103 -56 -33 0 -53 -21 -48 -52 l3 -23 235 0 235 0 0 35 c0 34 -1 35
-45 41 -75 9 -85 16 -98 65 -13 48 -18 1302 -6 1363 10 48 62 71 161 71 68 0
85 -4 129 -30 56 -32 81 -65 113 -150 47 -122 10 -341 -69 -419 -67 -65 -80
-71 -197 -78 -68 -4 -73 -6 -73 -27 0 -23 30 -89 65 -141 32 -48 43 -68 61
-105 22 -48 26 -56 64 -125 44 -79 88 -166 146 -295 26 -58 54 -112 61 -121 7
-8 13 -19 13 -23 0 -4 9 -21 21 -37 20 -29 20 -29 130 -29 l109 0 0 35 c0 30
-5 36 -37 51 -55 25 -60 32 -146 199 -9 17 -21 41 -27 55 -5 14 -24 48 -40 75
-27 45 -72 134 -129 255 -27 57 -57 110 -71 124 -5 5 -10 20 -10 31 0 16 14
28 60 49 32 15 75 40 95 56 45 36 108 123 123 170 6 19 18 57 27 84 30 99 16
219 -42 343 -25 55 -94 123 -124 123 -9 0 -33 7 -52 15 -40 17 -129 18 -292 3z" />
		<path fill="#6f0b2e" d="M9640 4479 c0 -140 3 -189 13 -197 24 -20 34 4 51 123 12 85 22 124
34 133 12 9 54 12 152 10 l135 -3 3 -685 c2 -446 -1 -697 -7 -720 -12 -40 -46
-60 -102 -60 -42 0 -62 -18 -57 -52 l3 -23 240 0 240 0 0 35 c0 35 0 35 -55
41 -85 10 -86 12 -94 87 -8 86 -8 1330 0 1360 6 22 8 23 142 20 l136 -3 23
-34 c20 -29 23 -47 23 -121 0 -91 11 -117 44 -104 14 5 16 30 16 193 l0 186
-470 0 -470 0 0 -186z" />
		<path fill="#6f0b2e" d="M14424 4644 c-9 -35 9 -51 65 -58 44 -6 50 -10 60 -38 8 -21 11 -251
11 -729 l0 -699 -36 -40 c-20 -22 -34 -47 -32 -57 3 -17 27 -18 398 -18 l395
0 7 190 c7 196 3 219 -30 199 -17 -11 -24 -44 -38 -175 -5 -48 -11 -60 -36
-79 -28 -21 -44 -23 -240 -28 -173 -4 -211 -3 -219 9 -10 16 -13 638 -3 663 5
14 28 16 146 16 147 0 198 -12 198 -48 1 -50 20 -155 30 -167 6 -7 18 -11 26
-8 12 4 14 50 14 275 l0 269 -22 -3 c-16 -2 -24 -11 -25 -28 -6 -60 -27 -161
-34 -166 -20 -12 -177 -23 -250 -17 l-79 6 0 317 0 318 75 17 c70 15 83 15
183 0 59 -9 116 -20 127 -25 11 -4 27 -10 36 -13 13 -4 17 -26 22 -107 5 -107
18 -138 47 -120 12 7 16 41 22 152 3 79 9 160 13 180 l7 37 -416 -1 -416 0 -6
-24z" />
		<path fill="#6f0b2e" d="M5683 2804 c-24 -17 -12 -58 17 -62 54 -7 111 -35 126 -63 12 -24 14
-147 14 -801 0 -894 8 -825 -95 -843 -64 -11 -81 -28 -72 -67 l7 -26 235 0
236 0 -3 41 -3 42 -56 9 c-38 6 -60 15 -68 28 -28 44 -33 210 -29 893 3 380 8
698 13 708 20 46 194 69 260 35 125 -66 176 -216 155 -458 -13 -157 -81 -276
-171 -300 -25 -7 -65 -9 -96 -5 -29 3 -57 4 -62 1 -5 -4 -4 -24 4 -48 12 -41
14 -43 61 -50 59 -9 147 0 182 18 32 16 158 148 177 185 21 40 45 111 45 135
0 12 7 39 17 60 24 58 22 270 -4 342 -11 28 -23 55 -26 59 -4 3 -7 13 -7 20 0
29 -70 100 -127 129 l-57 29 -330 0 c-215 0 -334 -4 -343 -11z" />
		<path fill="#6f0b2e" d="M13864 2811 c-2 -2 -4 -19 -4 -37 0 -30 3 -32 43 -38 23 -4 57 -15
74 -25 l31 -19 7 -299 c4 -164 5 -527 2 -807 -4 -435 -7 -510 -20 -523 -8 -9
-41 -21 -74 -27 l-58 -12 -3 -41 -3 -41 233 1 233 2 3 37 c3 35 1 37 -35 47
-21 6 -48 11 -60 11 -15 0 -28 10 -38 30 -13 25 -15 129 -15 809 0 554 3 787
11 805 12 25 76 56 117 56 21 0 23 4 20 37 l-3 37 -228 1 c-126 0 -231 -2
-233 -4z" />
		<path fill="#6f0b2e" d="M16343 2641 c-84 -11 -193 -67 -279 -143 -69 -62 -80 -77 -151 -208
-113 -208 -146 -562 -77 -820 29 -109 38 -135 51 -151 7 -8 13 -20 13 -26 0
-14 19 -50 48 -90 12 -17 22 -35 22 -40 0 -29 131 -148 220 -199 63 -36 182
-64 270 -64 70 0 227 35 251 56 8 8 19 14 24 14 4 0 30 14 56 30 49 32 79 83
79 135 0 35 -16 31 -73 -16 -79 -67 -131 -83 -277 -83 -118 0 -128 2 -183 29
-146 72 -253 219 -318 437 -31 101 -32 107 -31 308 0 191 1 212 26 300 33 120
50 159 102 240 45 69 54 78 126 128 71 49 128 64 216 59 93 -6 142 -15 162
-32 8 -6 31 -19 50 -28 19 -8 50 -32 68 -52 31 -36 32 -40 32 -125 0 -67 4
-91 16 -100 32 -27 45 8 55 146 5 71 12 143 15 159 5 27 1 33 -41 58 -25 15
-50 27 -55 27 -4 0 -21 6 -37 14 -15 8 -44 19 -64 25 -47 15 -237 22 -316 12z" />
		<path fill="#6f0b2e" d="M7141 2598 c-10 -24 -23 -59 -29 -78 -30 -107 -64 -219 -73 -245 -14
-40 -49 -172 -56 -210 -3 -16 -12 -39 -19 -50 -8 -11 -14 -28 -14 -39 0 -19
-11 -59 -35 -126 -7 -19 -18 -55 -25 -80 -7 -25 -18 -61 -25 -80 -24 -67 -35
-107 -35 -126 0 -11 -9 -44 -21 -74 -11 -30 -29 -86 -39 -125 -33 -127 -99
-296 -127 -327 -9 -10 -30 -18 -48 -18 -38 0 -58 -20 -53 -52 3 -23 4 -23 188
-28 118 -3 188 -1 193 5 4 6 6 24 5 40 -3 28 -6 30 -49 35 -82 10 -97 37 -73
131 8 35 18 75 21 89 3 14 21 76 40 138 l35 112 228 0 227 0 17 -43 c9 -23 16
-49 16 -57 0 -14 14 -62 36 -120 7 -19 18 -60 25 -90 6 -30 15 -66 18 -80 5
-14 2 -36 -7 -52 -12 -26 -18 -28 -68 -28 l-55 0 3 -43 3 -42 43 0 c23 1 119
2 213 3 l170 2 -3 38 c-3 33 -6 37 -34 40 -40 4 -77 44 -93 102 -7 25 -22 72
-33 105 -11 33 -27 89 -35 125 -8 36 -21 80 -29 98 -8 18 -14 39 -14 46 0 7
-11 49 -25 92 -28 89 -39 127 -55 199 -7 28 -18 66 -25 85 -7 19 -18 55 -25
80 -7 25 -17 56 -22 70 -6 14 -15 43 -20 65 -5 22 -13 56 -18 75 -5 19 -14 54
-19 78 -6 23 -15 50 -20 60 -5 9 -14 37 -21 62 -6 25 -16 59 -21 75 -12 34
-26 83 -40 140 -9 37 -31 65 -51 65 -5 0 -17 -19 -27 -42z m18 -383 c18 -72
31 -120 57 -205 12 -41 34 -115 48 -165 15 -49 36 -120 47 -157 12 -37 18 -72
14 -77 -4 -7 -74 -11 -197 -11 l-190 0 7 48 c4 26 11 52 15 57 5 6 14 31 20
55 24 96 30 121 39 158 4 20 13 48 18 62 19 46 33 96 33 116 0 11 5 25 10 30
6 6 17 37 25 70 27 104 33 106 54 19z" />
		<path fill="#6f0b2e" d="M7843 2603 c-3 -6 -3 -22 -1 -35 3 -23 14 -27 104 -44 43 -8 44 -19
44 -759 l0 -704 -22 -21 c-15 -13 -35 -20 -63 -20 -22 0 -46 -5 -53 -12 -15
-15 -16 -54 -2 -63 6 -3 110 -7 233 -7 l222 -1 3 28 c4 35 -19 55 -62 55 -17
0 -43 10 -59 23 l-28 22 1 698 c0 385 3 703 6 708 3 5 24 18 47 29 63 31 174
28 235 -6 59 -32 73 -47 109 -109 27 -48 28 -56 28 -180 0 -125 -1 -132 -30
-184 -16 -29 -52 -77 -80 -105 -55 -56 -109 -76 -201 -76 -27 0 -47 -5 -50
-13 -4 -12 38 -103 96 -202 16 -27 38 -68 49 -90 12 -22 30 -56 40 -75 44 -83
185 -366 195 -390 15 -41 75 -135 85 -134 6 1 58 2 116 3 l105 1 0 35 c0 30
-4 36 -27 41 -51 13 -84 45 -119 118 -19 39 -54 107 -79 151 -24 44 -54 100
-66 125 -11 25 -27 57 -35 71 -8 15 -23 46 -35 70 -12 24 -25 51 -30 59 -9 16
-82 160 -87 173 -2 4 1 7 6 7 6 0 39 13 74 29 61 29 135 93 164 142 71 123 94
230 77 356 -16 115 -32 151 -93 213 -86 86 -105 90 -494 87 -233 -1 -320 -5
-323 -14z" />
		<path fill="#6f0b2e" d="M8944 2605 c-2 -5 -3 -91 -1 -189 2 -154 4 -180 19 -189 12 -8 21 -7
32 2 13 11 16 34 16 113 0 92 2 101 25 123 23 24 29 25 160 25 l135 0 1 -667
c1 -831 4 -753 -29 -780 -16 -14 -41 -23 -62 -23 -49 0 -62 -11 -58 -50 l3
-32 225 0 225 0 3 33 c4 37 -9 49 -54 49 -17 0 -43 9 -58 21 l-26 20 0 715 0
714 138 0 c120 0 141 -2 154 -17 10 -12 20 -57 27 -128 12 -113 19 -132 45
-122 14 6 16 33 16 199 l0 193 -466 0 c-302 0 -468 -4 -470 -10z" />
		<path fill="#6f0b2e" d="M9964 2611 c-2 -2 -4 -19 -4 -37 0 -34 13 -44 56 -44 13 0 38 -13 56
-29 l33 -29 0 -694 c0 -645 -1 -696 -18 -721 -9 -15 -28 -29 -42 -32 -14 -3
-36 -7 -49 -10 -29 -6 -45 -54 -23 -70 9 -6 76 -9 181 -7 l167 3 -3 37 c-3 33
-6 37 -33 40 -71 7 -82 18 -89 90 -11 125 -7 1207 5 1195 12 -12 28 -39 55
-93 10 -19 23 -42 30 -50 6 -8 36 -61 66 -118 29 -57 64 -123 78 -148 14 -25
50 -93 81 -152 31 -59 71 -132 88 -162 18 -30 45 -82 62 -115 28 -56 47 -90
113 -205 79 -137 96 -166 103 -180 4 -8 26 -45 49 -82 38 -58 48 -68 81 -74
21 -4 47 -13 59 -21 11 -7 24 -10 27 -6 4 3 7 355 7 782 0 754 1 777 20 808
19 31 34 39 90 45 22 3 25 8 25 41 l0 38 -175 0 -175 0 0 -37 0 -38 55 -10 55
-11 12 -80 c13 -91 18 -1215 5 -1215 -12 0 -112 169 -178 300 -32 63 -66 128
-77 143 -11 16 -43 74 -72 130 -29 56 -67 127 -84 157 -17 30 -44 82 -61 115
-60 118 -120 228 -133 244 -7 9 -18 27 -23 41 -20 46 -54 115 -75 150 -11 19
-30 52 -43 73 l-22 38 -138 2 c-76 1 -140 0 -142 -2z" />
		<path fill="#6f0b2e" d="M11349 2603 c-6 -6 -9 -22 -7 -35 2 -18 13 -25 58 -36 35 -8 61 -21
69 -34 18 -28 26 -561 16 -1060 l-7 -386 -34 -36 c-33 -35 -42 -60 -26 -70 5
-3 184 -6 398 -7 l389 -1 6 123 c3 68 9 158 14 200 6 63 5 77 -8 82 -39 15
-53 -20 -73 -199 -9 -77 -22 -82 -262 -96 -109 -6 -207 -8 -216 -5 -14 6 -16
41 -16 352 l0 345 153 0 c183 0 181 1 197 -110 13 -89 24 -120 45 -120 23 0
26 30 23 295 -3 242 -4 250 -23 250 -17 0 -21 -9 -28 -61 -4 -34 -14 -77 -22
-96 -13 -32 -18 -36 -67 -41 -68 -9 -241 -9 -262 -1 -14 5 -16 43 -16 320 0
290 1 315 18 322 23 10 222 8 302 -3 36 -4 79 -14 96 -21 29 -12 31 -17 37
-81 4 -37 7 -85 7 -105 0 -40 9 -51 34 -42 13 5 16 23 16 99 0 51 7 130 16
175 8 45 12 85 9 89 -4 3 -191 6 -417 6 -308 0 -412 -3 -419 -12z" />
		<path fill="#6f0b2e" d="M12334 2611 c-2 -2 -4 -17 -4 -33 0 -30 27 -48 75 -48 13 0 37 -11
52 -24 l28 -24 3 -654 c2 -359 0 -681 -3 -715 -6 -57 -9 -64 -37 -78 -17 -8
-44 -15 -59 -15 -29 0 -59 -23 -59 -45 0 -40 3 -40 233 -38 122 1 228 2 235 3
7 0 12 13 12 30 0 34 -22 50 -72 50 -44 1 -68 21 -79 67 -10 42 -13 1352 -3
1378 12 31 83 55 167 56 77 1 82 -1 135 -38 73 -50 90 -75 107 -158 18 -84 19
-139 4 -219 -16 -83 -45 -141 -100 -196 -50 -50 -107 -70 -199 -70 -39 0 -49
-4 -53 -20 -3 -11 3 -30 12 -42 9 -13 29 -48 45 -78 15 -30 32 -64 39 -75 54
-88 66 -110 278 -538 30 -60 58 -118 64 -128 9 -18 20 -19 125 -17 l115 3 0
35 c0 27 -4 35 -20 38 -50 8 -96 53 -131 132 -33 73 -79 163 -114 225 -22 39
-45 83 -51 98 -11 28 -52 107 -109 212 -14 28 -29 62 -33 76 -6 22 -2 27 32
42 21 9 41 17 46 17 19 0 105 74 131 112 64 96 73 115 90 203 18 89 18 143 0
225 -20 92 -28 109 -80 167 -39 43 -57 55 -114 72 -62 19 -91 20 -385 18 -175
-1 -321 -4 -323 -6z" />
		<path fill="#6f0b2e" d="M14423 2603 c-2 -6 -3 -24 -1 -40 2 -21 9 -29 28 -31 55 -6 69 -13
89 -46 21 -33 21 -42 21 -708 0 -799 7 -750 -105 -760 -28 -3 -30 -6 -30 -40
0 -21 3 -38 8 -38 4 0 84 0 177 0 l170 0 0 28 c0 37 -17 52 -56 52 -17 0 -42
9 -55 19 l-24 19 -3 631 c-2 433 0 631 8 631 5 0 10 -7 10 -15 0 -9 11 -33 25
-55 14 -22 25 -41 25 -43 0 -7 101 -182 111 -191 5 -6 9 -15 9 -22 0 -6 23
-51 51 -100 46 -79 110 -197 173 -319 12 -22 30 -54 42 -70 11 -17 36 -62 56
-100 54 -108 100 -190 109 -193 5 -2 9 -8 9 -14 0 -5 16 -37 35 -69 19 -33 35
-64 35 -69 0 -5 15 -34 34 -63 33 -51 68 -77 104 -77 10 0 28 -7 40 -16 13 -9
25 -14 27 -12 3 2 6 361 7 797 l3 793 28 24 c15 13 41 24 56 24 39 0 64 21 59
51 l-3 24 -173 5 c-185 5 -197 3 -190 -41 4 -26 20 -36 68 -43 20 -4 41 -15
47 -26 12 -17 15 -327 13 -1187 0 -78 -10 -106 -24 -66 -3 10 -11 27 -18 38
-39 59 -78 126 -78 133 0 4 -21 43 -46 87 -41 70 -76 134 -111 200 -6 11 -18
36 -26 55 -9 19 -30 58 -46 85 -17 28 -40 68 -51 90 -49 93 -110 205 -154 285
-26 47 -61 112 -77 145 -17 33 -43 83 -59 110 -34 58 -60 114 -60 126 0 5 -3
9 -7 9 -147 6 -276 3 -280 -7z" />
		<path fill="#0676a0" d="M2560 2513 c-31 -6 -64 -39 -56 -59 7 -18 26 -18 50 1 27 20 50 19
71 -5 24 -26 35 -25 35 3 0 46 -41 71 -100 60z" />
		<path fill="#0676a0" d="M2450 2129 c0 -216 2 -241 16 -235 9 3 33 6 55 6 l39 0 0 235 0 235
-55 0 -55 0 0 -241z" />
		<path fill="#0676a0" d="M2620 2130 l0 -239 53 6 c28 3 54 8 57 10 3 3 5 108 6 234 l0 229
-58 0 -58 0 0 -240z" />
		<path fill="#0676a0" d="M2400 1840 c0 -5 9 -10 20 -10 11 0 20 5 20 10 0 6 -9 10 -20 10 -11
0 -20 -4 -20 -10z" />
		<path fill="#0676a0" d="M2443 1784 c-13 -6 -18 -311 -5 -331 4 -6 29 -11 60 -10 44 2 54 5
58 23 3 11 4 87 2 170 l-3 149 -50 2 c-27 1 -55 0 -62 -3z" />
		<path fill="#0676a0" d="M2620 1615 l0 -175 49 4 c27 2 53 6 59 10 5 3 9 51 8 113 -1 60 1
132 4 160 7 60 7 60 -72 62 l-48 1 0 -175z" />
		<path fill="#0676a0" d="M2890 1440 c0 -5 11 -10 25 -10 14 0 25 5 25 10 0 6 -11 10 -25 10
-14 0 -25 -4 -25 -10z" />
		<path fill="#0676a0" d="M3033 1377 c-12 -5 -24 -19 -27 -31 -6 -26 1 -233 9 -246 10 -16 41
-11 58 8 26 28 25 252 0 268 -12 7 -25 8 -40 1z" />
		<path fill="#0676a0" d="M2456 1364 c-22 -22 -7 -40 21 -25 11 5 29 7 41 4 16 -4 22 -1 22 11
0 9 -6 16 -12 16 -7 0 -22 3 -34 6 -13 3 -28 -1 -38 -12z" />
		<path fill="#0676a0" d="M3842 1372 c-9 -6 -12 -42 -10 -143 l3 -134 28 -3 28 -3 -3 143 c-3
118 -6 143 -18 145 -8 2 -21 -1 -28 -5z" />
		<path fill="#0676a0" d="M4113 1373 c-10 -3 -13 -54 -13 -204 0 -185 -1 -199 -18 -199 -25 0
-42 19 -42 48 0 21 -4 23 -37 20 -36 -3 -38 -4 -35 -36 2 -21 -1 -34 -11 -38
-22 -8 -55 13 -59 37 -7 52 -68 50 -68 -1 0 -59 -44 -47 -85 25 -17 29 -54 12
-47 -22 6 -31 -18 -54 -48 -46 -15 4 -20 14 -20 39 0 40 -11 48 -56 40 -29 -6
-34 -11 -34 -36 0 -31 -16 -48 -31 -33 -6 6 -10 88 -10 191 1 99 -2 188 -5
196 -4 10 -19 16 -40 16 l-34 0 0 -140 c0 -132 1 -140 19 -140 11 0 27 -8 36
-17 16 -16 16 -17 -1 -30 -10 -7 -26 -13 -36 -13 -12 0 -18 -8 -18 -22 0 -34
-15 -50 -41 -46 -18 2 -25 11 -29 33 -4 23 -11 31 -31 33 -20 2 -28 -4 -39
-30 -18 -40 -63 -48 -68 -11 -8 53 -62 55 -62 3 0 -28 -3 -31 -27 -28 -18 2
-31 13 -42 35 -9 18 -24 33 -33 34 -10 1 -24 2 -30 3 -7 1 -15 -14 -18 -34 -4
-27 -10 -36 -28 -38 -18 -3 -23 2 -28 27 -8 40 -29 58 -49 41 -8 -7 -15 -20
-15 -29 0 -46 -53 -55 -69 -11 -18 52 -69 52 -81 -1 -5 -19 -12 -24 -35 -24
-27 0 -31 4 -35 35 -3 21 -11 36 -21 38 -21 4 -49 -24 -49 -48 0 -19 -42 -40
-47 -24 -15 43 -31 59 -61 62 -30 3 -32 1 -32 -27 0 -16 -5 -33 -10 -36 -20
-12 -49 6 -55 35 -5 23 -12 30 -31 30 -15 0 -27 -7 -30 -17 -12 -38 -22 -48
-50 -48 -22 0 -29 5 -30 20 -2 41 -5 45 -29 45 -19 0 -26 -7 -33 -32 -6 -26
-14 -33 -33 -33 -18 0 -28 9 -38 33 -21 47 -63 40 -73 -13 -2 -14 -11 -20 -28
-20 -20 0 -26 6 -28 30 -2 16 -9 33 -15 37 -16 10 -44 -9 -59 -40 -17 -34 -70
-39 -76 -7 -10 53 -47 59 -67 11 -8 -19 -19 -38 -25 -41 -14 -9 -37 11 -53 44
-18 37 -45 39 -53 4 -4 -15 -11 -33 -16 -39 -14 -18 -48 -4 -54 22 -11 43 -67
42 -78 -2 -5 -18 -13 -24 -36 -24 -24 0 -29 5 -32 28 -3 23 -8 27 -33 27 -24
0 -31 -5 -33 -23 -2 -15 -14 -27 -32 -33 -32 -11 -43 -32 -35 -60 6 -19 60
-19 1878 -17 l1872 3 -3 35 c-1 19 -12 54 -23 78 -16 34 -24 43 -42 40 -15 -2
-23 -12 -27 -32 -7 -41 -33 -55 -59 -32 -12 11 -21 30 -21 44 0 17 -4 23 -15
18 -8 -3 -21 1 -29 9 -21 21 -26 19 -26 -14 0 -42 -10 -61 -31 -61 -13 0 -19
7 -19 24 0 31 -22 48 -57 44 -21 -2 -29 -9 -31 -28 -3 -23 -26 -50 -42 -50 -4
0 -12 12 -18 26 -9 18 -9 31 -1 46 9 17 8 19 -8 15 -10 -3 -30 -8 -45 -11 -21
-5 -27 -13 -30 -39 -2 -24 -8 -33 -24 -35 -17 -2 -26 6 -40 35 -23 47 -46 49
-59 5 -8 -29 -13 -33 -40 -30 -24 2 -31 8 -33 29 -2 21 -10 28 -33 31 -35 5
-39 2 -39 -28 0 -25 -36 -52 -50 -37 -5 4 -10 21 -12 37 -2 19 -9 30 -21 32
-21 3 -47 23 -47 36 0 5 16 16 35 24 l35 14 0 129 c0 125 -1 129 -22 135 -26
6 -28 6 -45 -1z" />
		<path fill="#0676a0" d="M4252 1368 c-8 -8 -12 -55 -12 -146 l0 -134 27 7 c16 4 30 9 33 12 3
2 7 61 8 130 3 97 1 128 -10 134 -18 12 -32 11 -46 -3z" />
		<path fill="#0676a0" d="M4392 1368 c-6 -8 -10 -62 -9 -143 l2 -130 28 -3 28 -3 -3 143 c-3
121 -5 143 -19 146 -9 1 -21 -3 -27 -10z" />
		<path fill="#0676a0" d="M4654 1367 c-2 -7 -3 -71 -2 -143 l3 -129 35 0 35 0 3 134 c2 101 -1
136 -10 143 -20 12 -58 9 -64 -5z" />
		<path fill="#0676a0" d="M4797 1373 c-4 -3 -7 -68 -7 -144 l0 -138 35 1 35 1 0 138 c0 116 -2
138 -16 143 -20 8 -39 8 -47 -1z" />
		<path fill="#0676a0" d="M1504 1359 c-4 -6 -7 -68 -7 -138 l0 -126 27 -3 26 -3 0 128 c0 87
-4 133 -12 141 -15 15 -25 15 -34 1z" />
		<path fill="#0676a0" d="M1630 1230 l0 -141 33 3 32 3 3 75 c1 41 -1 102 -5 135 -7 56 -10 60
-35 63 l-28 3 0 -141z" />
		<path fill="#0676a0" d="M1766 1348 c-8 -30 -8 -187 0 -227 6 -27 11 -32 33 -29 l26 3 0 135
0 135 -26 3 c-20 2 -28 -2 -33 -20z" />
		<path fill="#0676a0" d="M1909 1344 c-5 -15 -8 -77 -7 -138 l3 -111 35 0 35 0 3 119 c2 100 0
122 -14 137 -24 26 -43 24 -55 -7z" />
		<path fill="#0676a0" d="M2057 1364 c-4 -4 -7 -67 -7 -141 l0 -133 25 0 26 0 -3 137 c-3 115
-6 138 -18 141 -9 1 -19 0 -23 -4z" />
		<path fill="#0676a0" d="M2185 1358 c-2 -7 -3 -69 -2 -138 l2 -125 28 -3 c22 -3 27 1 28 20 4
147 5 235 1 246 -2 6 -15 12 -28 12 -14 0 -27 -6 -29 -12z" />
		<path fill="#0676a0" d="M2592 1354 c4 -21 22 -23 26 -1 2 10 -3 17 -13 17 -10 0 -15 -6 -13
-16z" />
		<path fill="#0676a0" d="M2880 1236 c0 -80 4 -137 10 -141 6 -3 19 -3 31 0 14 5 17 10 10 19
-5 6 -7 17 -3 23 4 6 6 61 4 122 -3 110 -3 111 -28 111 l-24 0 0 -134z" />
		<path fill="#0676a0" d="M3290 1240 c0 -71 0 -133 0 -137 0 -5 12 -8 28 -8 l27 0 3 138 3 137
-31 0 -30 0 0 -130z" />
		<path fill="#0676a0" d="M3552 1358 c-8 -8 -12 -53 -12 -135 0 -121 0 -123 24 -129 57 -14 61
-8 64 106 4 144 -1 170 -36 170 -16 0 -33 -5 -40 -12z" />
		<path fill="#0676a0" d="M3698 1235 c-3 -142 0 -153 43 -140 16 6 18 17 15 133 -2 70 -4 130
-5 135 0 4 -12 7 -25 7 l-25 0 -3 -135z" />
		<path fill="#0676a0" d="M3969 1353 c-2 -45 1 -246 3 -249 2 -1 16 -4 31 -6 l28 -3 2 138 2
137 -32 0 c-25 0 -33 -5 -34 -17z" />
		<path fill="#0676a0" d="M4938 1263 c-4 -155 -3 -163 33 -163 l29 0 0 135 0 135 -29 0 -30 0
-3 -107z" />
		<path fill="#0676a0" d="M1355 1338 c-3 -13 -5 -72 -3 -133 l3 -110 30 0 30 0 3 110 c4 136
-1 155 -33 155 -17 0 -26 -7 -30 -22z" />
		<path fill="#0676a0" d="M2450 1271 c0 -5 18 -11 40 -13 28 -2 40 0 40 9 0 8 -14 13 -40 13
-22 0 -40 -4 -40 -9z" />
		<path fill="#6f0b2e" d="M13662 1265 c-13 -7 -29 -18 -35 -24 -6 -6 -21 -11 -34 -11 -33 0
-49 -33 -62 -130 -19 -142 -33 -213 -47 -247 -8 -17 -14 -37 -14 -44 0 -15
-19 -77 -31 -101 -31 -61 -48 -146 -33 -161 12 -12 80 43 98 80 10 21 22 45
27 53 5 8 12 22 15 30 3 8 10 23 15 32 5 10 9 25 9 33 0 9 11 40 24 68 28 61
35 82 46 122 5 17 16 50 26 75 9 25 20 59 25 75 4 17 15 53 22 80 22 75 3 100
-51 70z" />
		<path fill="#6f0b2e" d="M17090 1222 c-47 -38 -64 -147 -34 -218 32 -78 75 -102 122 -68 37
25 52 67 52 142 0 87 -14 129 -51 147 -37 20 -62 19 -89 -3z" />
		<path fill="#0676a0" d="M2450 1155 l0 -66 33 3 c30 3 32 5 38 53 7 57 6 60 -38 70 l-33 7 0
-67z" />
		<path fill="#0676a0" d="M2596 1212 c-3 -3 -6 -29 -6 -58 0 -42 4 -55 19 -63 33 -18 53 7 49
64 -3 43 -6 49 -30 56 -15 4 -29 4 -32 1z" />
		<path fill="#0676a0" d="M2737 1203 c-3 -5 -7 -30 -8 -58 l-4 -50 40 0 40 0 0 57 0 58 -32 0
c-17 0 -34 -3 -36 -7z" />
	</g>
</svg>
